[gd_scene load_steps=2 format=2]

[ext_resource path="res://levels/childhood/outline.tscn" type="PackedScene" id=1]

[node name="blue" type="Node2D"]

[node name="outline" parent="." instance=ExtResource( 1 )]
scene = 1

[node name="TileMap" parent="outline" index="1"]
tile_data = PoolIntArray( -1, 0, 0, -65536, 0, 1, -65535, 0, 131076, -65534, 0, 1, -65533, 0, 131076, -65532, 0, 131076, -65531, 0, 1, -65530, 0, 131076, -65529, 0, 131076, -65528, 0, 1, -65527, 0, 1, -65526, 0, 131076, -65525, 0, 131076, -65524, 0, 1, -65523, 0, 1, -65522, 0, 1, -65521, 0, 131076, -65520, 0, 1, -65519, 0, 1, -65518, 0, 131076, -65517, 0, 1, -65516, 0, 1, -65515, 0, 1, -65514, 0, 1, -65513, 0, 1, -65512, 0, 2, 65535, 0, 65536, 0, 0, 3, 1, 0, 131073, 2, 0, 131073, 3, 0, 131073, 4, 0, 65544, 5, 0, 131073, 6, 0, 131073, 7, 0, 65544, 8, 0, 131073, 9, 0, 65544, 10, 0, 131073, 11, 0, 4, 12, 0, 4, 13, 0, 131073, 14, 0, 65544, 15, 0, 131073, 16, 0, 131073, 17, 0, 65544, 18, 0, 4, 19, 0, 65544, 20, 0, 4, 21, 0, 65544, 22, 0, 131073, 23, 0, 5, 24, 0, 65539, 131071, 0, 65536, 65536, 0, 65539, 65540, 0, 196612, 65543, 0, 196612, 65545, 0, 196612, 65550, 0, 327688, 65553, 0, 196612, 65555, 0, 196612, 65557, 0, 196612, 65559, 0, 65541, 65560, 0, 65539, 196607, 0, 65536, 131072, 0, 65539, 131076, 0, 327681, 131077, 0, 131078, 131078, 0, 262152, 131079, 0, 7, 131081, 0, 196612, 131084, 0, 196608, 131085, 0, 196613, 131086, 0, 7, 131089, 0, 196612, 131091, 0, 131079, 131092, 0, 196613, 131093, 0, 196615, 131094, 0, 196613, 131095, 0, 8, 131096, 0, 65539, 262143, 0, 65541, 196608, 0, 131075, 196609, 0, 131078, 196610, 0, 262152, 196611, 0, 65543, 196612, 0, 65542, 196613, 0, 327683, 196615, 0, 196612, 196617, 0, 196612, 196620, 0, 196612, 196622, 0, 196610, 196623, 0, 196613, 196624, 0, 6, 196625, 0, 327682, 196627, 0, 327688, 196631, 0, 65536, 196632, 0, 65539, 327679, 0, 65541, 262144, 0, 65537, 262145, 0, 65539, 262147, 0, 196612, 262149, 0, 196612, 262151, 0, 196612, 262153, 0, 196612, 262156, 0, 196612, 262160, 0, 65536, 262161, 0, 65538, 262163, 0, 196612, 262167, 0, 65541, 262168, 0, 65538, 393215, 0, 65541, 327680, 0, 65537, 327681, 0, 65538, 327683, 0, 196612, 327685, 0, 131079, 327686, 0, 196613, 327687, 0, 7, 327689, 0, 196612, 327692, 0, 131079, 327693, 0, 196613, 327694, 0, 262152, 327695, 0, 65543, 327696, 0, 65542, 327697, 0, 327683, 327699, 0, 131079, 327700, 0, 196613, 327701, 0, 262152, 327702, 0, 196613, 327703, 0, 8, 327704, 0, 65539, 458751, 0, 65541, 393216, 0, 65537, 393217, 0, 65538, 393219, 0, 196610, 393220, 0, 262152, 393221, 0, 196611, 393223, 0, 196612, 393225, 0, 196612, 393228, 0, 196612, 393231, 0, 196612, 393233, 0, 327688, 393235, 0, 196612, 393239, 0, 65536, 393240, 0, 65538, 524287, 0, 65541, 458752, 0, 65537, 458753, 0, 65539, 458759, 0, 327688, 458761, 0, 196612, 458764, 0, 196612, 458767, 0, 131079, 458768, 0, 262152, 458769, 0, 262151, 458770, 0, 196613, 458771, 0, 262151, 458772, 0, 196613, 458773, 0, 196613, 458774, 0, 196613, 458775, 0, 8, 458776, 0, 65538, 589823, 0, 65541, 524288, 0, 65537, 524289, 0, 131075, 524290, 0, 131076, 524291, 0, 1, 524292, 0, 131076, 524293, 0, 131076, 524294, 0, 1, 524295, 0, 196616, 524296, 0, 131078, 524297, 0, 196615, 524298, 0, 196613, 524299, 0, 65543, 524300, 0, 196615, 524301, 0, 262152, 524302, 0, 196613, 524303, 0, 7, 524305, 0, 196612, 524307, 0, 327688, 524311, 0, 65536, 524312, 0, 65538, 655359, 0, 65541, 589824, 0, 3, 589825, 0, 131073, 589826, 0, 4, 589827, 0, 65544, 589828, 0, 4, 589829, 0, 65544, 589830, 0, 4, 589831, 0, 131073, 589832, 0, 327683, 589835, 0, 196612, 589839, 0, 131079, 589840, 0, 262152, 589841, 0, 7, 589843, 0, 196612, 589847, 0, 65541, 589848, 0, 65538, 720895, 0, 65536, 655360, 0, 65538, 655363, 0, 327688, 655365, 0, 196612, 655368, 0, 196612, 655371, 0, 196612, 655375, 0, 196612, 655377, 0, 196612, 655379, 0, 131079, 655380, 0, 262152, 655381, 0, 65543, 655382, 0, 262152, 655383, 0, 8, 655384, 0, 65539, 786431, 0, 65541, 720896, 0, 131080, 720897, 0, 196613, 720898, 0, 196613, 720899, 0, 196611, 720901, 0, 327688, 720904, 0, 327681, 720905, 0, 131078, 720906, 0, 262152, 720907, 0, 7, 720911, 0, 131079, 720912, 0, 262152, 720913, 0, 7, 720915, 0, 196612, 720917, 0, 196612, 720919, 0, 65536, 720920, 0, 65538, 851967, 0, 65536, 786432, 0, 65538, 786437, 0, 327681, 786438, 0, 131076, 786439, 0, 1, 786440, 0, 131077, 786441, 0, 65539, 786443, 0, 196612, 786447, 0, 196612, 786449, 0, 196612, 786451, 0, 327681, 786452, 0, 1, 786453, 0, 327682, 786455, 0, 65536, 786456, 0, 65539, 917503, 0, 65536, 851968, 0, 131075, 851969, 0, 1, 851970, 0, 1, 851971, 0, 131076, 851972, 0, 131076, 851973, 0, 131077, 851974, 0, 65537, 851975, 0, 65537, 851976, 0, 65537, 851977, 0, 131075, 851978, 0, 131076, 851979, 0, 196616, 851980, 0, 131076, 851981, 0, 1, 851982, 0, 131076, 851983, 0, 196616, 851984, 0, 131076, 851985, 0, 196616, 851986, 0, 131076, 851987, 0, 131077, 851988, 0, 65537, 851989, 0, 131075, 851990, 0, 1, 851991, 0, 131077, 851992, 0, 65538, 983039, 0, 131072, 917504, 0, 131073, 917505, 0, 131073, 917506, 0, 131073, 917507, 0, 131073, 917508, 0, 4, 917509, 0, 4, 917510, 0, 4, 917511, 0, 131073, 917512, 0, 131073, 917513, 0, 131073, 917514, 0, 131073, 917515, 0, 4, 917516, 0, 4, 917517, 0, 4, 917518, 0, 131073, 917519, 0, 131073, 917520, 0, 4, 917521, 0, 131073, 917522, 0, 4, 917523, 0, 131073, 917524, 0, 4, 917525, 0, 4, 917526, 0, 4, 917527, 0, 4, 917528, 0, 131074 )

[editable path="outline"]
