[gd_scene load_steps=5 format=2]

[ext_resource path="res://sprites/chest.png" type="Texture" id=1]
[ext_resource path="res://scripts/chest.gd" type="Script" id=2]

[sub_resource type="CapsuleShape2D" id=1]
resource_local_to_scene = true
radius = 6.06286
height = 18.844

[sub_resource type="CapsuleShape2D" id=2]
resource_local_to_scene = true
radius = 9.73418
height = 18.8439

[node name="Chest" type="StaticBody2D"]
script = ExtResource( 2 )

[node name="CollisionShape2D" type="CollisionShape2D" parent="."]
position = Vector2( -0.45, 0 )
rotation = 1.5708
shape = SubResource( 1 )

[node name="Sprite" type="Sprite" parent="."]
position = Vector2( 0, -20.762 )
texture = ExtResource( 1 )
vframes = 2
hframes = 3

[node name="Area2D" type="Area2D" parent="."]

[node name="area_collision" type="CollisionShape2D" parent="Area2D"]
position = Vector2( -0.45, 0 )
rotation = 1.5708
shape = SubResource( 2 )
[connection signal="area_entered" from="Area2D" to="." method="_on_interaction"]
