[gd_scene load_steps=5 format=2]

[ext_resource path="res://sprites/mirror.png" type="Texture" id=1]
[ext_resource path="res://scripts/mirror.gd" type="Script" id=2]

[sub_resource type="CapsuleShape2D" id=1]
resource_local_to_scene = true
radius = 4.69256
height = 17.3683

[sub_resource type="CapsuleShape2D" id=2]
resource_local_to_scene = true

[node name="mirror" type="StaticBody2D"]
script = ExtResource( 2 )

[node name="Sprite" type="Sprite" parent="."]
position = Vector2( 0.669403, -23.4291 )
texture = ExtResource( 1 )
vframes = 2
hframes = 3
frame = 3

[node name="CollisionShape2D" type="CollisionShape2D" parent="."]
rotation = 1.5708
shape = SubResource( 1 )

[node name="Area2D" type="Area2D" parent="."]

[node name="area_collision" type="CollisionShape2D" parent="Area2D"]
rotation = 1.5708
shape = SubResource( 2 )
[connection signal="area_entered" from="Area2D" to="." method="_on_interaction"]
